{
    "global": {
        "check_for_updates_on_startup": true,
        "show_in_menu_bar": true,
        "show_profile_name_in_menu_bar": false
    },
    "profiles": [
        {
            "complex_modifications": {
                "parameters": {
                    "basic.simultaneous_threshold_milliseconds": 50,
                    "basic.to_delayed_action_delay_milliseconds": 500,
                    "basic.to_if_alone_timeout_milliseconds": 1000,
                    "basic.to_if_held_down_threshold_milliseconds": 500,
                    "mouse_motion_to_scroll.speed": 100
                },
                "rules": [
                    {
                        "description": "Lock Screen",
                        "manipulators": [
                            {
                                "from": {
                                    "key_code": "l",
                                    "modifiers": {
                                        "mandatory": [
                                            "left_option"
                                        ],
                                        "optional": [
                                            "any"
                                        ]
                                    }
                                },
                                "to": [
                                    {
                                        "key_code": "q",
                                        "modifiers": [
                                            "right_command",
                                            "right_control"
                                        ]
                                    }
                                ],
                                "type": "basic"
                            }
                        ]
                    },
                    {
                        "description": "Home and End Keys",
                        "manipulators": [
                            {
                                "description": "Ctrl+Home (right)",
                                "from": {
                                    "key_code": "home",
                                    "modifiers": {
                                        "mandatory": [
                                            "right_control"
                                        ],
                                        "optional": [
                                            "any"
                                        ]
                                    }
                                },
                                "to": [
                                    {
                                        "key_code": "up_arrow",
                                        "modifiers": [
                                            "right_command"
                                        ]
                                    }
                                ],
                                "type": "basic"
                            },
                            {
                                "description": "Ctrl+Home (left)",
                                "from": {
                                    "key_code": "home",
                                    "modifiers": {
                                        "mandatory": [
                                            "left_control"
                                        ],
                                        "optional": [
                                            "any"
                                        ]
                                    }
                                },
                                "to": [
                                    {
                                        "key_code": "up_arrow",
                                        "modifiers": [
                                            "left_command"
                                        ]
                                    }
                                ],
                                "type": "basic"
                            },
                            {
                                "description": "Home key",
                                "from": {
                                    "key_code": "home",
                                    "modifiers": {
                                        "optional": [
                                            "any"
                                        ]
                                    }
                                },
                                "to": [
                                    {
                                        "key_code": "left_arrow",
                                        "modifiers": [
                                            "right_command"
                                        ]
                                    }
                                ],
                                "type": "basic"
                            },
                            {
                                "description": "Ctrl+End key (left)",
                                "from": {
                                    "key_code": "end",
                                    "modifiers": {
                                        "mandatory": [
                                            "left_control"
                                        ],
                                        "optional": [
                                            "any"
                                        ]
                                    }
                                },
                                "to": [
                                    {
                                        "key_code": "down_arrow",
                                        "modifiers": [
                                            "left_command"
                                        ]
                                    }
                                ],
                                "type": "basic"
                            },
                            {
                                "description": "Ctrl+End key (right)",
                                "from": {
                                    "key_code": "end",
                                    "modifiers": {
                                        "mandatory": [
                                            "right_control"
                                        ],
                                        "optional": [
                                            "any"
                                        ]
                                    }
                                },
                                "to": [
                                    {
                                        "key_code": "down_arrow",
                                        "modifiers": [
                                            "left_command"
                                        ]
                                    }
                                ],
                                "type": "basic"
                            },
                            {
                                "description": "End key",
                                "from": {
                                    "key_code": "end",
                                    "modifiers": {
                                        "optional": [
                                            "any"
                                        ]
                                    }
                                },
                                "to": [
                                    {
                                        "key_code": "right_arrow",
                                        "modifiers": [
                                            "left_command"
                                        ]
                                    }
                                ],
                                "type": "basic"
                            }
                        ]
                    },
                    {
                        "description": "Cut, Copy, Paste",
                        "manipulators": [
                            {
                                "conditions": [
                                    {
                                        "bundle_identifiers": [
                                            "^org\\.terminus",
                                            "^com\\.apple\\.Terminal$",
                                            "^io\\.alacritty",
                                            "^com\\.googlecode\\.iterm2",
											"^net.\\kovidgoyal\\.kitty"
                                        ],
                                        "type": "frontmost_application_unless"
                                    }
                                ],
                                "description": "ctrl+c (left)",
                                "from": {
                                    "key_code": "c",
                                    "modifiers": {
                                        "mandatory": [
                                            "left_control"
                                        ],
                                        "optional": [
                                            "any"
                                        ]
                                    }
                                },
                                "to": [
                                    {
                                        "key_code": "c",
                                        "modifiers": [
                                            "left_command"
                                        ]
                                    }
                                ],
                                "type": "basic"
                            },
                            {
                                "conditions": [
                                    {
                                        "bundle_identifiers": [
                                            "^org\\.terminus",
                                            "^com\\.apple\\.Terminal$",
                                            "^io\\.alacritty",
                                            "^com\\.googlecode\\.iterm2",
											"^net.\\kovidgoyal\\.kitty"
                                        ],
                                        "type": "frontmost_application_unless"
                                    }
                                ],
                                "description": "ctrl+c (right)",
                                "from": {
                                    "key_code": "c",
                                    "modifiers": {
                                        "mandatory": [
                                            "right_control"
                                        ],
                                        "optional": [
                                            "any"
                                        ]
                                    }
                                },
                                "to": [
                                    {
                                        "key_code": "c",
                                        "modifiers": [
                                            "right_command"
                                        ]
                                    }
                                ],
                                "type": "basic"
                            },
                            {
                                "description": "ctrl+x (left)",
                                "from": {
                                    "key_code": "x",
                                    "modifiers": {
                                        "mandatory": [
                                            "left_control"
                                        ],
                                        "optional": [
                                            "any"
                                        ]
                                    }
                                },
                                "to": [
                                    {
                                        "key_code": "x",
                                        "modifiers": [
                                            "left_command"
                                        ]
                                    }
                                ],
                                "type": "basic"
                            },
                            {
                                "description": "ctrl+x (right)",
                                "from": {
                                    "key_code": "x",
                                    "modifiers": {
                                        "mandatory": [
                                            "right_control"
                                        ],
                                        "optional": [
                                            "any"
                                        ]
                                    }
                                },
                                "to": [
                                    {
                                        "key_code": "x",
                                        "modifiers": [
                                            "right_command"
                                        ]
                                    }
                                ],
                                "type": "basic"
                            },
                            {
                                "description": "ctrl+v (left)",
                                "from": {
                                    "key_code": "v",
                                    "modifiers": {
                                        "mandatory": [
                                            "left_control"
                                        ],
                                        "optional": [
                                            "any"
                                        ]
                                    }
                                },
                                "to": [
                                    {
                                        "key_code": "v",
                                        "modifiers": [
                                            "left_command"
                                        ]
                                    }
                                ],
                                "type": "basic"
                            },
                            {
                                "description": "ctrl+v (right)",
                                "from": {
                                    "key_code": "v",
                                    "modifiers": {
                                        "mandatory": [
                                            "right_control"
                                        ],
                                        "optional": [
                                            "any"
                                        ]
                                    }
                                },
                                "to": [
                                    {
                                        "key_code": "v",
                                        "modifiers": [
                                            "right_command"
                                        ]
                                    }
                                ],
                                "type": "basic"
                            }
                        ]
                    },
                    {
                        "description": "Ctrl-Enter with Submlime Merge",
                        "manipulators": [
                            {
                                "conditions": [
                                    {
                                        "bundle_identifiers": [
                                            "^com\\.sublimemerge"
                                        ],
                                        "type": "frontmost_application_if"
                                    }
                                ],
                                "from": {
                                    "key_code": "return_or_enter",
                                    "modifiers": {
                                        "mandatory": [
                                            "left_control"
                                        ],
                                        "optional": [
                                            "any"
                                        ]
                                    }
                                },
                                "to": [
                                    {
                                        "key_code": "return_or_enter",
                                        "modifiers": [
                                            "left_command"
                                        ]
                                    }
                                ],
                                "type": "basic"
                            },
                            {
                                "conditions": [
                                    {
                                        "bundle_identifiers": [
                                            "^com\\.sublimemerge"
                                        ],
                                        "type": "frontmost_application_if"
                                    }
                                ],
                                "from": {
                                    "key_code": "return_or_enter",
                                    "modifiers": {
                                        "mandatory": [
                                            "right_control"
                                        ],
                                        "optional": [
                                            "any"
                                        ]
                                    }
                                },
                                "to": [
                                    {
                                        "key_code": "return_or_enter",
                                        "modifiers": [
                                            "right_command"
                                        ]
                                    }
                                ],
                                "type": "basic"
                            }
                        ]
                    },
                    {
                        "description": "Broswer refresh",
                        "manipulators": [
                            {
                                "conditions": [
                                    {
                                        "bundle_identifiers": [
                                            "^com\\.gooogle.Chrome",
                                            "^org\\.mozilla\\.firefox",
                                            "^com\\.apple\\.Safari"
                                        ],
                                        "type": "frontmost_application_if"
                                    }
                                ],
                                "from": {
                                    "key_code": "f5",
                                    "modifiers": {
                                        "mandatory": [
                                            "right_control"
                                        ],
                                        "optional": [
                                            "any"
                                        ]
                                    }
                                },
                                "to": [
                                    {
                                        "key_code": "r",
                                        "modifiers": [
                                            "right_command",
                                            "right_shift"
                                        ]
                                    }
                                ],
                                "type": "basic"
                            },
                            {
                                "conditions": [
                                    {
                                        "bundle_identifiers": [
                                            "^com\\.google\\.Chrome",
                                            "^org\\.mozilla\\.firefox",
                                            "^com\\.apple\\.Safari"
                                        ],
                                        "type": "frontmost_application_if"
                                    }
                                ],
                                "from": {
                                    "key_code": "f5",
                                    "modifiers": {
                                        "mandatory": [
                                            "left_control"
                                        ],
                                        "optional": [
                                            "any"
                                        ]
                                    }
                                },
                                "to": [
                                    {
                                        "key_code": "r",
                                        "modifiers": [
                                            "right_command",
                                            "right_shift"
                                        ]
                                    }
                                ],
                                "type": "basic"
                            },
                            {
                                "conditions": [
                                    {
                                        "bundle_identifiers": [
                                            "^com\\.google\\.chrome",
                                            "^org\\.mozilla\\.firefox",
                                            "^com\\.apple\\.safari"
                                        ],
                                        "type": "frontmost_application_if"
                                    }
                                ],
                                "from": {
                                    "key_code": "f5",
                                    "modifiers": {
                                        "optional": [
                                            "any"
                                        ]
                                    }
                                },
                                "to": [
                                    {
                                        "key_code": "r",
                                        "modifiers": [
                                            "left_command"
                                        ]
                                    }
                                ],
                                "type": "basic"
                            }
                        ]
                    },
                    {
                        "description": "DevTools",
                        "manipulators": [
                            {
                                "conditions": [
                                    {
                                        "bundle_identifiers": [
                                            "^com\\.google\\.Chrome",
                                            "^org\\.mozilla\\.firefox"
                                        ],
                                        "type": "frontmost_application_if"
                                    }
                                ],
                                "from": {
                                    "key_code": "o",
                                    "modifiers": {
                                        "mandatory": [
                                            "left_control"
                                        ],
                                        "optional": [
                                            "any"
                                        ]
                                    }
                                },
                                "to": [
                                    {
                                        "key_code": "p",
                                        "modifiers": [
                                            "left_command"
                                        ]
                                    }
                                ],
                                "type": "basic"
                            }
                        ]
                    }
                ]
            },
            "devices": [
                {
                    "disable_built_in_keyboard_if_exists": false,
                    "fn_function_keys": [],
                    "identifiers": {
                        "is_keyboard": true,
                        "is_pointing_device": false,
                        "product_id": 30354,
                        "vendor_id": 3141
                    },
                    "ignore": false,
                    "manipulate_caps_lock_led": true,
                    "simple_modifications": [
                        {
                            "from": {
                                "key_code": "left_option"
                            },
                            "to": [
                                {
                                    "key_code": "left_command"
                                }
                            ]
                        },
                        {
                            "from": {
                                "key_code": "left_command"
                            },
                            "to": [
                                {
                                    "key_code": "left_option"
                                }
                            ]
                        },
                        {
                            "from": {
                                "key_code": "right_option"
                            },
                            "to": [
                                {
                                    "key_code": "right_command"
                                }
                            ]
                        },
                        {
                            "from": {
                                "key_code": "right_command"
                            },
                            "to": [
                                {
                                    "key_code": "right_option"
                                }
                            ]
                        }
                    ]
                }
            ],
            "fn_function_keys": [
                {
                    "from": {
                        "key_code": "f1"
                    },
                    "to": [
                        {
                            "consumer_key_code": "display_brightness_decrement"
                        }
                    ]
                },
                {
                    "from": {
                        "key_code": "f2"
                    },
                    "to": [
                        {
                            "consumer_key_code": "display_brightness_increment"
                        }
                    ]
                },
                {
                    "from": {
                        "key_code": "f3"
                    },
                    "to": [
                        {
                            "apple_vendor_keyboard_key_code": "mission_control"
                        }
                    ]
                },
                {
                    "from": {
                        "key_code": "f4"
                    },
                    "to": [
                        {
                            "apple_vendor_keyboard_key_code": "spotlight"
                        }
                    ]
                },
                {
                    "from": {
                        "key_code": "f5"
                    },
                    "to": [
                        {
                            "consumer_key_code": "dictation"
                        }
                    ]
                },
                {
                    "from": {
                        "key_code": "f6"
                    },
                    "to": [
                        {
                            "key_code": "f6"
                        }
                    ]
                },
                {
                    "from": {
                        "key_code": "f7"
                    },
                    "to": [
                        {
                            "consumer_key_code": "rewind"
                        }
                    ]
                },
                {
                    "from": {
                        "key_code": "f8"
                    },
                    "to": [
                        {
                            "consumer_key_code": "play_or_pause"
                        }
                    ]
                },
                {
                    "from": {
                        "key_code": "f9"
                    },
                    "to": [
                        {
                            "consumer_key_code": "fast_forward"
                        }
                    ]
                },
                {
                    "from": {
                        "key_code": "f10"
                    },
                    "to": [
                        {
                            "consumer_key_code": "mute"
                        }
                    ]
                },
                {
                    "from": {
                        "key_code": "f11"
                    },
                    "to": [
                        {
                            "consumer_key_code": "volume_decrement"
                        }
                    ]
                },
                {
                    "from": {
                        "key_code": "f12"
                    },
                    "to": [
                        {
                            "consumer_key_code": "volume_increment"
                        }
                    ]
                }
            ],
            "name": "Default profile",
            "parameters": {
                "delay_milliseconds_before_open_device": 1000
            },
            "selected": true,
            "simple_modifications": [],
            "virtual_hid_keyboard": {
                "country_code": 0,
                "indicate_sticky_modifier_keys_state": true,
                "mouse_key_xy_scale": 100
            }
        }
    ]
}
